-1.343887164546146663e-03
-7.915830641482688584e-03
-2.074617769024570541e-02
-1.420362984334364378e-02
-3.529852158146563976e-03
-1.373158202343814291e-02
-2.017558750750125460e-02
-7.752112021315123516e-03
-1.336799917858599949e-03
